{
  "project_location": "E:\\prog_projects\\pops\\tests",
  "remote_repository": "",
  "remote_repository_type": "",
  "username": "",
  "password": "",
  "website": "hello.world.com",
  "theme": "default",
  "ignored_elements": [
    ".gitignore",
    "main.py"
  ]
}